<?xml version="1.0" encoding="utf-8"?>
<!-- Generator: Adobe Illustrator 14.0.0, SVG Export Plug-In . SVG Version: 6.00 Build 43363)  -->
<!DOCTYPE svg PUBLIC "-//W3C//DTD SVG 1.1//EN" "http://www.w3.org/Graphics/SVG/1.1/DTD/svg11.dtd">
<svg version="1.1" id="Layer_1" xmlns="http://www.w3.org/2000/svg" xmlns:xlink="http://www.w3.org/1999/xlink" x="0px" y="0px"
	 width="792px" height="612px" viewBox="0 0 792 612" enable-background="new 0 0 792 612" xml:space="preserve">
<g>
	<defs>
		<rect id="SVGID_1_" x="170" y="110.065" width="468.028" height="376.935"/>
	</defs>
	<clipPath id="SVGID_2_">
		<use xlink:href="#SVGID_1_"  overflow="visible"/>
	</clipPath>
	<path clip-path="url(#SVGID_2_)" d="M170,242.353c0-73.061,59.227-132.288,132.288-132.288c40.901,0,77.46,18.572,101.726,47.732
		c24.266-29.16,60.824-47.732,101.727-47.732c73.061,0,132.288,59.227,132.288,132.288c0,27.577-9.085,52.757-22.873,74.376
		c-37.079,58.143-138.171,161.521-211.054,168.835c-0.029-0.01-0.058-0.025-0.088-0.034c-0.029,0.009-0.059,0.024-0.088,0.034
		c-72.883-7.313-173.974-110.692-211.053-168.835C179.085,295.109,170,269.93,170,242.353"/>
	<path clip-path="url(#SVGID_2_)" fill="#ED1C24" d="M183.167,242.353c0-60.844,46.06-109.827,119.12-109.827
		c40.902,0,77.461,25.008,101.727,54.169c24.266-29.161,60.824-54.169,101.727-54.169c73.061,0,119.119,51.617,119.119,109.827
		c0,27.577-11.718,52.757-25.506,74.376c-37.078,58.143-122.369,161.521-195.251,168.835c-0.03-0.01-0.059-0.025-0.089-0.034
		c-0.029,0.009-0.059,0.024-0.088,0.034c-72.883-7.313-158.172-110.692-195.252-168.835
		C194.886,295.109,183.167,269.93,183.167,242.353"/>
	<path clip-path="url(#SVGID_2_)" fill="#9E0B0F" d="M299.867,296.94c25.553-12.962,38.727,98.564,104.235,188.622
		c-0.03-0.009-0.06-0.024-0.089-0.034c-0.029,0.01-0.059,0.025-0.088,0.034c-60.439-6.063-129.41-78.191-172.346-135.801
		C245.303,321.469,274.322,309.897,299.867,296.94"/>
	<path clip-path="url(#SVGID_2_)" fill="#9E0B0F" d="M510.069,296.94c-25.554-12.962-38.728,98.564-104.235,188.622
		c0.029-0.009,0.059-0.024,0.088-0.034c0.029,0.01,0.059,0.025,0.088,0.034c60.439-6.063,129.41-78.191,172.346-135.801
		C564.633,321.469,535.613,309.897,510.069,296.94"/>
	<path clip-path="url(#SVGID_2_)" d="M229.961,358.028c4.025-64.592,165.684-90.117,173.673-164.023
		c-1.456,66.766,175.207,104.901,176.561,164.023c-6.44-27.485-39.797-40.422-64.15-49.872
		c-6.541,144.485-94.855,175.957-112.41,176.21c-17.553-0.253-103.309-31.711-109.777-176.11
		C269.526,317.696,236.379,330.638,229.961,358.028"/>
	<path clip-path="url(#SVGID_2_)" fill="#FFFFFF" d="M306.701,303.858c48.985-28.198,84.082-49.621,96.934-83.518
		c11.763,32.074,61.013,64.431,99.565,83.518C500.225,456.546,421.571,486.741,403.635,487
		C385.697,486.741,309.678,456.546,306.701,303.858"/>
	<path clip-path="url(#SVGID_2_)" fill="#ED1C24" d="M438.158,441.983c-1.238,11.247-10.764,19.998-22.34,19.998h-24.887
		c-11.577,0-21.102-8.751-22.34-19.998H438.158z"/>
	<path clip-path="url(#SVGID_2_)" fill="#C61D23" d="M438.158,441.982c-1.238-11.246-10.764-19.997-22.34-19.997
		c-4.604,0-8.88,1.388-12.443,3.762c-3.564-2.374-7.841-3.762-12.443-3.762c-11.577,0-21.102,8.751-22.34,19.997h23.553
		c4.135,0.225,7.986,1.511,11.23,3.672c3.244-2.161,7.096-3.447,11.23-3.672H438.158z"/>
</g>
<polygon fill="#ED1C24" points="368.592,437.848 368.592,442.177 403.525,446.664 396.616,437.848 "/>
<polygon fill="#ED1C24" points="438.117,437.848 438.117,442.177 403.184,446.664 410.093,437.848 "/>
<g>
	<defs>
		<rect id="SVGID_3_" x="170" y="110.065" width="468.028" height="376.935"/>
	</defs>
	<clipPath id="SVGID_4_">
		<use xlink:href="#SVGID_3_"  overflow="visible"/>
	</clipPath>
	<path clip-path="url(#SVGID_4_)" d="M354.305,431.382c2.668,2.682,6.393,3.262,10.008,3.262h19.311
		c11.029,0,15.152,2.291,19.025,5.521c3.595-3.229,9.438-5.527,19.236-5.527c4.318,0,19.489,0.007,19.489,0.007
		c3.616,0,7.342-0.58,10.009-3.262c0,0-5.023,8.038-11.984,8.038c0,0-14.752,0-17.229,0c-10.082,0-17.282,6.928-19.487,9.751
		c-2.562-2.823-7.346-9.751-19.357-9.751c-3.899,0-17.035,0-17.035,0C359.57,439.42,354.305,431.382,354.305,431.382"/>
	<path clip-path="url(#SVGID_4_)" d="M425.322,398.284c0,0-1.588-4.553-2.853-3.376s-14.188,12.977-19.019,12.977
		s-17.955-12.032-19.019-12.966s-2.853,3.365-2.853,3.365l0.025-9.002c0,0,15.736,10.899,21.836,10.899s21.881-10.924,21.881-10.924
		V398.284z"/>
	<path clip-path="url(#SVGID_4_)" fill="#E6E7E8" d="M309.955,350.344c8.499,8.6,20.131,13.837,33.176,13.837
		c17.033,0,31.944-9.084,40.154-22.671c3.521-5.829-55.939-8.677-75.182-5.608C308.258,340.094,308.643,342.658,309.955,350.344"/>
	<path clip-path="url(#SVGID_4_)" fill="#00AEEF" d="M343.625,363.986c15.176,0,27.477-12.302,27.477-27.477
		c0-15.177-12.301-27.479-27.477-27.479c-15.175,0-27.477,12.302-27.477,27.479C316.148,351.685,328.45,363.986,343.625,363.986"/>
	<path clip-path="url(#SVGID_4_)" fill="#0084CB" d="M343.625,360.562c13.285,0,24.055-10.769,24.055-24.054
		c0-13.284-10.77-24.054-24.055-24.054s-24.054,10.77-24.054,24.054C319.571,349.794,330.34,360.562,343.625,360.562"/>
	<path clip-path="url(#SVGID_4_)" d="M343.625,350.248c7.588,0,13.739-6.151,13.739-13.739c0-7.587-6.151-13.738-13.739-13.738
		s-13.738,6.151-13.738,13.738C329.887,344.097,336.037,350.248,343.625,350.248"/>
</g>
<rect x="329.919" y="339.295" fill="#FFFFFF" width="8.474" height="8.473"/>
<g>
	<defs>
		<rect id="SVGID_5_" x="170" y="110.065" width="468.028" height="376.935"/>
	</defs>
	<clipPath id="SVGID_6_">
		<use xlink:href="#SVGID_5_"  overflow="visible"/>
	</clipPath>
	<path clip-path="url(#SVGID_6_)" fill="#72BF44" d="M384.732,315.585c-29.885-24.663-56.63-29.31-78.48-11.534
		c0.37,8.148,1.111,27.035,1.666,38.33c26.039-7.299,26-7.318,44.703-7.318c17.997,0,25.629-2.919,32.111,5.994V315.585z"/>
	<path clip-path="url(#SVGID_6_)" d="M390.012,314.631v9.521c-25.91-25.199-55.916-31.327-71.914-27.428
		C324.301,294.098,351.314,283.502,390.012,314.631"/>
	<path clip-path="url(#SVGID_6_)" d="M384.743,351.71c-25.427-23.049-108.714,10.399-113.272-28.154
		c10.256,29.772,82.693-12.521,113.272,16.655V351.71z"/>
	<path clip-path="url(#SVGID_6_)" fill="#E6E7E8" d="M500.191,347.509c-8.601,10.196-21.469,16.672-35.853,16.672
		c-17.032,0-31.944-9.084-40.153-22.671c-3.545-5.868,57.455-8.086,76.271-4.926C504.301,337.229,501.052,338.493,500.191,347.509"
		/>
	<path clip-path="url(#SVGID_6_)" fill="#00AEEF" d="M463.846,363.986c-15.176,0-27.477-12.302-27.477-27.477
		c0-15.177,12.301-27.479,27.477-27.479c15.175,0,27.479,12.302,27.479,27.479C491.324,351.685,479.021,363.986,463.846,363.986"/>
	<path clip-path="url(#SVGID_6_)" fill="#0084CB" d="M463.846,360.562c-13.285,0-24.055-10.769-24.055-24.054
		c0-13.284,10.77-24.054,24.055-24.054s24.055,10.77,24.055,24.054C487.9,349.794,477.131,360.562,463.846,360.562"/>
	<path clip-path="url(#SVGID_6_)" d="M463.846,350.248c-7.588,0-13.739-6.151-13.739-13.739c0-7.587,6.151-13.738,13.739-13.738
		s13.738,6.151,13.738,13.738C477.584,344.097,471.434,350.248,463.846,350.248"/>
</g>
<rect x="452.455" y="339.295" fill="#FFFFFF" width="8.473" height="8.473"/>
<g>
	<defs>
		<rect id="SVGID_7_" x="170" y="110.065" width="468.028" height="376.935"/>
	</defs>
	<clipPath id="SVGID_8_">
		<use xlink:href="#SVGID_7_"  overflow="visible"/>
	</clipPath>
	<path clip-path="url(#SVGID_8_)" fill="#72BF44" d="M422.738,315.585c29.885-24.663,54.611-27.644,80.721-11.534
		c-0.186,9.444-1.666,26.851-2.592,37.96c-26.039-7.299-27.313-6.948-46.018-6.948c-17.997,0-25.629-2.919-32.111,5.994V315.585z"/>
	<path clip-path="url(#SVGID_8_)" d="M417.459,314.631v9.521c25.91-25.199,55.916-31.327,71.914-27.428
		C483.17,294.098,456.156,283.502,417.459,314.631"/>
	<path clip-path="url(#SVGID_8_)" d="M422.728,351.71c25.427-23.049,108.714,10.399,113.272-28.154
		c-10.256,29.772-82.693-12.521-113.272,16.655V351.71z"/>
	<path clip-path="url(#SVGID_8_)" fill="#9E0B0F" d="M404.102,186.514c-25.98,48.885-159.988,61.078-179.587,135.374
		C240.012,265.367,394.644,244.742,404.102,186.514"/>
	<path clip-path="url(#SVGID_8_)" fill="#9E0B0F" d="M404.066,186.594c-25.02,43.57-176.445,23.571-196.045,97.867
		C223.519,227.941,392.757,240.271,404.066,186.594"/>
	<path clip-path="url(#SVGID_8_)" fill="#9E0B0F" d="M404.018,186.594c25.019,43.57,176.443,23.571,196.044,97.867
		C584.564,227.941,415.326,240.271,404.018,186.594"/>
	<path clip-path="url(#SVGID_8_)" fill="#9E0B0F" d="M403.91,186.514c25.981,48.885,159.988,61.078,179.588,135.374
		C568.001,265.367,413.369,244.742,403.91,186.514"/>
	<path clip-path="url(#SVGID_8_)" fill="#9E0B0F" d="M398.328,345.481c76.76-97.352-7.186-138.633,7.812-162.08
		C377.91,243.981,457.521,255.513,398.328,345.481"/>
</g>
</svg>
