<?xml version="1.0" encoding="utf-8"?>
<!-- Generator: Adobe Illustrator 14.0.0, SVG Export Plug-In . SVG Version: 6.00 Build 43363)  -->
<!DOCTYPE svg PUBLIC "-//W3C//DTD SVG 1.1//EN" "http://www.w3.org/Graphics/SVG/1.1/DTD/svg11.dtd">
<svg version="1.1" id="Layer_1" xmlns="http://www.w3.org/2000/svg" xmlns:xlink="http://www.w3.org/1999/xlink" x="0px" y="0px"
	 width="792px" height="612px" viewBox="0 0 792 612" enable-background="new 0 0 792 612" xml:space="preserve">
<polygon fill="#2E3192" points="312.98,420.515 251.07,349.77 321.814,299.993 516.119,297.348 597.251,350.603 527.878,425.006 "/>
<g>
	<defs>
		<rect id="SVGID_1_" x="242" y="106.904" width="361.283" height="369.096"/>
	</defs>
	<clipPath id="SVGID_2_">
		<use xlink:href="#SVGID_1_"  overflow="visible"/>
	</clipPath>
	<path clip-path="url(#SVGID_2_)" d="M242,349.964c45.512-47.572,109.605-77.215,180.643-77.215
		c71.035,0,135.129,29.643,180.641,77.215l-71.416,79.464c-0.811-0.882-3.17-8.213-4.533-10.779
		c21.863-24.611,31.213-34.92,60.294-66.985c-42.729-41.33-100.842-62.693-164.985-62.693c-64.146,0-122.599,21.363-165.328,62.693
		c29.08,32.065,38.772,42.374,60.635,66.985c-1.362,2.566-3.723,9.897-4.533,10.779L242,349.964z"/>
	<path clip-path="url(#SVGID_2_)" fill="#0084CB" d="M587.928,351.157c-6.104-6.962-32.488-30.092-70.304-46.91
		c0.149,1.93,0.083,3.712,0.266,5.18c14.265,7.012,50.964,33.899,62.948,49.554C584.058,355.365,585.451,353.887,587.928,351.157"/>
</g>
<rect x="331.482" y="228.824" fill="#E7B173" width="181.942" height="112.649"/>
<polygon fill="#BD7E54" points="331.482,228.823 331.482,341.474 388.375,341.474 415.979,299.183 415.979,228.823 "/>
<path d="M511.186,336.836H333.784V227.907h177.401V336.836z M520.791,222.161H324.283v117.386h196.508V222.161z"/>
<g>
	<defs>
		<rect id="SVGID_3_" x="242" y="106.904" width="361.283" height="369.096"/>
	</defs>
	<clipPath id="SVGID_4_">
		<use xlink:href="#SVGID_3_"  overflow="visible"/>
	</clipPath>
	<path clip-path="url(#SVGID_4_)" fill="#2E3192" d="M422.551,265.233c80.363,0,145.512-34.735,145.512-77.582
		c0-42.849-65.148-77.582-145.512-77.582S277.04,144.803,277.04,187.651C277.04,230.498,342.188,265.233,422.551,265.233"/>
</g>
<polygon fill="#939598" points="332.137,215.399 374.891,202.629 422.086,197.632 462.619,202.073 499.266,209.292 513.702,215.954 
	514.258,246.493 483.719,239.275 442.631,235.389 393.213,236.498 358.232,242.052 330.471,246.493 "/>
<polygon fill="#65727A" points="401.986,199.76 374.891,202.629 332.137,215.399 330.471,246.494 358.232,242.052 393.213,236.499 
	401.986,236.302 "/>
<g>
	<defs>
		<rect id="SVGID_5_" x="242" y="106.904" width="361.283" height="369.096"/>
	</defs>
	<clipPath id="SVGID_6_">
		<use xlink:href="#SVGID_5_"  overflow="visible"/>
	</clipPath>
	<path clip-path="url(#SVGID_6_)" d="M324.234,293.075v50.429c0,40.906-26.902,92.995-30.807,102.141
		c76.242,44.215,202.031,36.553,255.811,0c-3.842-8.834-28.447-59.919-28.447-101.574c0-31.601-0.037-42.489,0-51.747
		c-35.102,5.264-60.982,44.3-60.982,44.3h-75.717C384.092,336.623,359.105,296.799,324.234,293.075"/>
	<path clip-path="url(#SVGID_6_)" fill="#ED1C24" d="M333.785,297.715c0.03,3.873,0,39.374,0,46.225
		c0,47.799-12.338,73.085-22.801,95.729c71.367,28.422,153.665,28.422,220.857,0c-5.977-16.771-20.655-59.886-20.655-95.729v-47.082
		c-22.331,5.997-40.879,47.082-40.879,47.082h-95.452C374.855,343.939,353.305,304.064,333.785,297.715"/>
	<path clip-path="url(#SVGID_6_)" d="M564.742,188.192c0,40.265-67.308,75.135-142.101,75.135
		c-74.794,0-142.101-34.87-142.101-75.135s67.307-67.872,142.101-67.872C497.435,120.32,564.742,147.928,564.742,188.192
		 M573.115,188.192c0-44.739-67.369-81.007-150.474-81.007s-150.474,36.268-150.474,81.007s67.369,81.007,150.474,81.007
		S573.115,232.932,573.115,188.192"/>
	<path clip-path="url(#SVGID_6_)" fill="none" stroke="#000000" stroke-width="0.563" d="M564.742,188.192
		c0,40.265-67.308,75.135-142.101,75.135c-74.794,0-142.101-34.87-142.101-75.135s67.307-67.872,142.101-67.872
		C497.435,120.32,564.742,147.928,564.742,188.192z M573.115,188.192c0-44.739-67.369-81.007-150.474-81.007
		s-150.474,36.268-150.474,81.007s67.369,81.007,150.474,81.007S573.115,232.932,573.115,188.192z"/>
	<path clip-path="url(#SVGID_6_)" d="M422.643,263.135c-35.479,0-69.254-7.858-94.949-20.402v8.069
		c25.879,11.363,58.928,18.185,94.949,18.185c35.933,0,68.904-6.791,94.754-18.104v-8.054
		C491.727,255.317,458.031,263.135,422.643,263.135 M517.396,214.181c-25.85-11.312-58.821-18.104-94.754-18.104
		c-36.021,0-69.07,6.821-94.949,18.185v8.069c25.695-12.543,59.47-20.402,94.949-20.402c35.389,0,69.084,7.817,94.754,20.306
		V214.181z"/>
	<path clip-path="url(#SVGID_6_)" d="M517.396,245.377c-26.543-9.378-58.821-12.551-94.754-12.551
		c-36.021,0-67.963,3.423-94.949,12.632v4.995c0,0,3.887,1.122,5.959,0.385c25.024-8.888,56.19-11.05,88.99-11.05
		c32.557,0,64.963,2.162,88.441,10.817c2.186,0.806,6.312-0.01,6.312-0.01V245.377z"/>
	<path clip-path="url(#SVGID_6_)" d="M417.645,267.285c0,0-0.079,18.896-0.079,26.805c0,7.908-4.858,11.499-6.319,12.658
		c2.766-5.573,2.141-17.192,2.141-12.566v-26.896H417.645z"/>
	<path clip-path="url(#SVGID_6_)" d="M333.785,219.455c0,0-0.08-18.762-0.08-26.67c0-18.696-18.041-26.504-19.504-27.663
		c4.498,5.997,10.082,12.993,10.082,27.437v26.896H333.785z"/>
	<path clip-path="url(#SVGID_6_)" d="M511.152,219.455c0,0,0.079-18.762,0.079-26.67c0-18.696,18.042-26.504,19.504-27.663
		c-4.497,5.997-10.081,12.993-10.081,27.437v26.896H511.152z"/>
	<path clip-path="url(#SVGID_6_)" d="M397.978,305.855c-3.556-2.629-0.791-9.659-0.791-9.659s19.885,20.258,25.455,20.258
		c6.961,0,24.851-20.258,24.851-20.258s2.941,7.625-0.627,9.611c29.413-5.177,70.531,38.132,70.531,38.132h-57.831
		c0,0-4.626,16.003-17.127,16.003h-39.978c-12.301,0-16.744-16.003-16.744-16.003h-58.022
		C327.694,343.939,367.256,297.576,397.978,305.855"/>
</g>
<rect x="511.186" y="216.62" width="6.211" height="31.911"/>
<rect x="511.146" y="216.62" width="9.623" height="31.911"/>
<rect x="324.283" y="216.62" width="9.621" height="31.911"/>
<polygon points="334.912,246.493 385.995,237.055 445.407,236.499 499.266,242.052 511.481,248.715 463.174,262.596 
	418.199,265.371 384.329,263.15 349.348,254.267 "/>
<g>
	<defs>
		<rect id="SVGID_7_" x="242" y="106.904" width="361.283" height="369.096"/>
	</defs>
	<clipPath id="SVGID_8_">
		<use xlink:href="#SVGID_7_"  overflow="visible"/>
	</clipPath>
	<path clip-path="url(#SVGID_8_)" d="M447.99,181.529c0-7.896-5.551-16.602-25.348-16.602c-20.182,0-25.734,8.705-25.734,16.602
		c0,0.613,0,19.92,0,19.92h51.082V181.529z"/>
	<path clip-path="url(#SVGID_8_)" fill="#939598" d="M442.438,182.302c0-8.198-8.863-11.89-19.797-11.89
		c-10.933,0-20.181,3.691-20.181,11.89v25.463h39.978V182.302z"/>
	<path clip-path="url(#SVGID_8_)" fill="#E7B173" d="M449.518,343.939h-53.752c-0.359,3.811,4.004,8.169,6.695,8.169h40.361
		C445.514,352.108,449.877,347.75,449.518,343.939"/>
	<path clip-path="url(#SVGID_8_)" fill="#ED1C24" d="M346.988,337.555c0,0,35.854-36.984,54.662-27.446
		c1.978,1.776,13.523,11.571,20.992,12.309c7.688-0.828,17.818-10.532,19.795-12.309c18.261-10.251,53.996,27.335,53.996,27.335
		l-68.597,0.053l-5.177-13.392l-5.176,13.396L346.988,337.555z"/>
	<path clip-path="url(#SVGID_8_)" d="M322.193,451.895c-0.078-1.653-2.854-4.316-0.23-11.018c2.698-6.893,6.549-3.875,9.663-11.145
		c3.097-7.228-2.185-13.007,1.25-18.051c3.377-4.961,9.269-9.14,7.214-13.852c-1.645-3.774-5.499-11.474,6.08-21.651
		c-11.118,14.196-0.904,17.012-1.451,23.677c-0.486,5.951-3.139,9.128-5.916,13.238c-4.662,6.897,2.48,11.365-1.109,18.753
		c-2.104,4.327-7.711,7.384-8.719,10.162c-2.492,6.851,2.881,10.778,2.754,11.868c-1.404,0.218-8.199-1.721-9.242-2.42
		c0.152,0.006,0.305,0.011,0.457,0.017"/>
	<path clip-path="url(#SVGID_8_)" d="M346.55,457.28c-0.152-1.649-3.04-4.188-0.712-10.998c2.395-7.003,6.373-4.156,9.168-11.555
		c2.779-7.356-2.75-12.899,0.462-18.089c3.157-5.103,8.86-9.535,6.603-14.152c-1.809-3.698-5.994-11.224,5.129-21.896
		c-10.488,14.667-0.162,17.035-0.416,23.717c-0.228,5.967-2.738,9.257-5.332,13.483c-4.357,7.094,2.973,11.246-0.291,18.784
		c-1.912,4.415-7.381,7.714-8.269,10.533c-2.19,6.952,3.349,10.641,3.269,11.736c-1.393,0.278-8.266-1.361-9.336-2.015
		c0.151-0.001,0.303-0.002,0.455-0.003"/>
	<path clip-path="url(#SVGID_8_)" d="M373.012,463.253c-0.234-1.723-2.988-4.307-1.294-11.497c1.741-7.396,5.495-4.517,7.574-12.336
		c2.065-7.773-3.244-13.437-0.659-18.952c2.542-5.426,7.417-10.212,5.107-14.99c-1.848-3.826-6.066-11.598,3.322-23.06
		c-8.578,15.629,0.865,17.843,1.033,24.847c0.149,6.254-1.917,9.763-4.004,14.256c-3.504,7.54,3.346,11.7,0.854,19.677
		c-1.461,4.672-6.191,8.268-6.823,11.242c-1.56,7.337,3.649,11.057,3.642,12.206c-1.238,0.327-7.527-1.214-8.531-1.871
		c0.137-0.004,0.273-0.009,0.41-0.014"/>
	<path clip-path="url(#SVGID_8_)" d="M400.072,465.028c-0.412-1.688-3.42-3.972-2.488-11.3c0.959-7.536,4.993-5.064,6.243-13.058
		c1.243-7.949-4.632-13.025-2.638-18.781c1.961-5.661,6.311-10.931,3.516-15.441c-2.24-3.612-7.247-10.9,0.892-23.28
		c-6.897,16.438,2.726,17.654,3.625,24.602c0.802,6.204-0.886,9.91-2.491,14.597c-2.697,7.865,4.551,11.286,2.904,19.479
		c-0.963,4.799-5.293,8.869-5.611,11.895c-0.783,7.46,4.787,10.614,4.899,11.758c-1.198,0.455-7.614-0.42-8.681-0.968
		c0.136-0.02,0.271-0.038,0.406-0.059"/>
	<path clip-path="url(#SVGID_8_)" d="M429.687,463.093c-0.616-1.626-3.88-3.524-3.849-10.912c0.035-7.597,4.34-5.636,4.607-13.722
		c0.264-8.041-6.185-12.363-4.906-18.32c1.256-5.856,4.93-11.618,1.605-15.754c-2.663-3.312-8.521-9.936-1.952-23.216
		c-4.842,17.157,4.858,17.19,6.597,23.977c1.553,6.06,0.328,9.944-0.694,14.791c-1.718,8.137,5.894,10.647,5.258,18.981
		c-0.372,4.88-4.173,9.447-4.12,12.489c0.131,7.499,6.043,9.952,6.295,11.072c-1.133,0.599-7.609,0.512-8.734,0.098
		c0.133-0.035,0.266-0.071,0.397-0.107"/>
	<path clip-path="url(#SVGID_8_)" d="M460.894,463.845c-0.796-1.546-4.254-3.062-5.058-10.405
		c-0.827-7.554,3.673-6.092,3.021-14.156c-0.646-8.019-7.543-11.583-6.947-17.646c0.584-5.962,3.582-12.102-0.188-15.835
		c-3.021-2.989-9.591-8.907-4.567-22.846c-2.869,17.596,6.772,16.53,9.269,23.076c2.229,5.845,1.453,9.843,0.983,14.775
		c-0.785,8.277,7.062,9.911,7.373,18.264c0.184,4.891-3.076,9.859-2.679,12.874c0.979,7.437,7.132,9.205,7.509,10.29
		c-1.059,0.722-7.502,1.369-8.668,1.085c0.127-0.05,0.256-0.101,0.383-0.151"/>
	<path clip-path="url(#SVGID_8_)" d="M487.137,460.033c-0.929-1.471-4.506-2.681-5.947-9.926c-1.481-7.451,3.129-6.388,1.777-14.365
		c-1.344-7.932-8.523-10.882-8.46-16.974c0.063-5.99,2.515-12.368-1.567-15.758c-3.269-2.715-10.33-8.038-6.539-22.36
		c-1.325,17.778,8.187,15.876,11.244,22.18c2.729,5.629,2.304,9.68,2.268,14.634c-0.062,8.314,7.896,9.259,8.936,17.551
		c0.609,4.856-2.205,10.09-1.547,13.06c1.623,7.323,7.906,8.548,8.376,9.597c-0.991,0.811-7.354,2.018-8.538,1.836
		c0.121-0.062,0.244-0.122,0.367-0.185"/>
	<path clip-path="url(#SVGID_8_)" d="M514.23,453.781c-1.027-1.402-4.681-2.36-6.624-9.487c-1.998-7.33,2.675-6.591,0.771-14.454
		c-1.894-7.819-9.262-10.261-9.623-16.342c-0.354-5.98,1.646-12.515-2.662-15.611c-3.451-2.479-10.866-7.297-8.084-21.85
		c-0.082,17.828,9.273,15.267,12.763,21.343c3.116,5.424,2.976,9.494,3.284,14.438c0.518,8.299,8.523,8.686,10.139,16.886
		c0.946,4.802-1.496,10.219-0.633,13.135c2.131,7.192,8.484,7.976,9.025,8.989c-0.932,0.879-7.195,2.525-8.391,2.427
		c0.118-0.069,0.236-0.139,0.354-0.209"/>
	<path clip-path="url(#SVGID_8_)" fill="#4A4B4C" d="M508.297,249.658c-19.129-7.673-61.918-11.316-81.657-11.161
		c0.083,3.592,0.062,20.822,0.062,24.883C436.301,263.692,470.35,262.609,508.297,249.658"/>
	<path clip-path="url(#SVGID_8_)" d="M390.16,278.49v-9.135h-39.211c0,0,2.352,4.561,9.7,4.561h5.656v4.574H390.16z"/>
	<path clip-path="url(#SVGID_8_)" d="M455.123,278.49v-9.135h39.211c0,0-2.352,4.561-9.7,4.561h-5.656v4.574H455.123z"/>
	<path clip-path="url(#SVGID_8_)" fill="#BD7E54" d="M416.107,343.939h-20.342c-0.359,3.811,4.004,8.169,6.695,8.169h13.646V343.939
		z"/>
	<path clip-path="url(#SVGID_8_)" d="M425.086,183.211c0,1.485-1.205,2.689-2.69,2.689s-2.688-1.204-2.688-2.689
		c0-1.484,1.203-2.688,2.688-2.688S425.086,181.727,425.086,183.211 M427.648,183.211c0-2.9-2.352-5.253-5.253-5.253
		s-5.253,2.353-5.253,5.253c0,2.901,2.352,5.254,5.253,5.254S427.648,186.112,427.648,183.211"/>
	<path clip-path="url(#SVGID_8_)" d="M401.542,219.666v-8.769l3.913,5.868l13.098,2.938c0,0,2.268-33.468,2.319-34.718
		c0.052-1.249,2.97-1.362,3.079,0s2.318,34.718,2.318,34.718l13.099-2.938l3.913-5.868v8.769l-20.854,8.2v-0.045l-0.031,0.045
		L401.542,219.666z"/>
</g>
<polygon points="409.455,190.586 409.455,192.014 422.414,195.289 435.393,192.014 435.393,190.586 "/>
<g>
	<defs>
		<rect id="SVGID_9_" x="242" y="106.904" width="361.283" height="369.096"/>
	</defs>
	<clipPath id="SVGID_10_">
		<use xlink:href="#SVGID_9_"  overflow="visible"/>
	</clipPath>
	<path clip-path="url(#SVGID_10_)" d="M408.775,193.011c0.965,0,1.747-0.782,1.747-1.748s-0.782-1.747-1.747-1.747
		c-0.966,0-1.748,0.781-1.748,1.747S407.81,193.011,408.775,193.011"/>
	<path clip-path="url(#SVGID_10_)" d="M436.091,193.011c0.966,0,1.748-0.782,1.748-1.748s-0.782-1.747-1.748-1.747
		c-0.965,0-1.748,0.781-1.748,1.747S435.126,193.011,436.091,193.011"/>
	<path clip-path="url(#SVGID_10_)" fill="#0084CB" d="M429.973,121.284c143.118,7.03,149.486,74.059,118.329,99.065
		c18.935-20.692,24.687-83.168-102.819-86.362C441.328,130.221,439.559,130.551,429.973,121.284"/>
</g>
</svg>
