{
  "created": 2018,
  "contributors": [
    {
      "alias": "jtm",
      "year": 2020,
      "type": "developer"
    },
    {
      "alias": "Zeazed",
      "year": 2023,
      "type": "bugfixer"
    }
  ]
}
 